…
```r
Breweries_state<-summarise(group_by(Breweries,State), count=n())
Breweries_state # Look at the summarized the data
```

```
## # A tibble: 51 x 2
##    State count
##    <fct> <int>
##  1 " AK"     7
##  2 " AL"     3
##  3 " AR"     2
##  4 " AZ"    11
##  5 " CA"    39
##  6 " CO"    47
##  7 " CT"     8
##  8 " DC"     1
##  9 " DE"     2
## 10 " FL"    15
## # ... with 41 more rows
```
…
